…
-   Загрузите датасет. Это данные о 671 младенце с очень низкой массой тела (\<1600 грамм), собранные в Duke University Medical Center доктором Майклом О’Ши c 1981 по 1987 г. Описание переменных [здесь](https://hbiostat.org/data/repo/cvlbw). 
-   Переменными исхода являются колонки **dead**, а также **hospstay** - время от рождения до смерти или выписки (выводятся из 'birth' и 'exit', 7 пациентов были выписаны до рождения).
-   Сделайте копию датасета, в которой удалите колонки с количеством пропусков больше 100, а затем удалите все строки с пропусками.


``` r
data_raw <- read_rds("data/raw/very_low_birthweight.RDS")

skim(data_raw)[2:3] %>% 
  arrange(desc(n_missing))
```

```
## # A tibble: 26 × 2
##    skim_variable n_missing
##    <chr>             <int>
##  1 lol                 381
##  2 magsulf             247
##  3 pvh                 145
##  4 ivh                 144
##  5 ipe                 144
##  6 meth                106
##  7 toc                 106
##  8 pltct                70
##  9 cld                  66
## 10 lowph                62
## # ℹ 16 more rows
```
…
